
{
  "header": {
    "event": "Allocation failed - JavaScript heap out of memory",
    "location": "OnFatalError",
    "filename": "report.20190216.105844.3488.001.json",
    "dumpEventTime": "2019-02-16T10:58:44Z",
    "dumpEventTimeStamp": "1550311124766",
    "processId": 3488,
    "commandLine": [
      "/usr/bin/node",
      "/opt/JetBrains/apps/WebStorm/ch-0/182.4129.32/plugins/JavaScriptLanguage/jsLanguageServicesImpl/js-language-service.js",
      "-id=1550231780311"
    ],
    "nodejsVersion": "v11.9.0",
    "glibcVersion": "2.28",
    "wordSize": 64,
    "componentVersions": {
      "node": "11.9.0",
      "v8": "7.0.276.38-node.16",
      "uv": "1.25.0",
      "zlib": "1.2.11",
      "brotli": "1.0.7",
      "ares": "1.15.0",
      "modules": "67",
      "nghttp2": "1.35.1",
      "napi": "4",
      "llhttp": "1.0.1",
      "http_parser": "2.8.0",
      "openssl": "1.1.1a",
      "cldr": "34.0",
      "icu": "63.1",
      "tz": "2018e",
      "unicode": "11.0",
      "arch": "x64",
      "platform": "linux",
      "release": "node"
    },
    "osVersion": "Linux 4.20.6-arch1-1-ARCH #1 SMP PREEMPT Thu Jan 31 08:22:01 UTC 2019",
    "glibc": "2.28",
    "machine": "Linux 4.20.6-arch1-1-ARCH #1 SMP PREEMPT Thu Jan 31 08:22:01 UTC 2019Arson x86_64"
  },
  "javascriptStack": {
    "message": "No stack.",
    "stack": [
      "Unavailable."
    ]
  },
  "nativeStack": [
    " [pc=0x562d39a152ca] report::TriggerNodeReport(v8::Isolate*, node::Environment*, char const*, char const*, std::__cxx11::basic_string<char, std::char_traits<char>, std::allocator<char> >, v8::Local<v8::String>) [/usr/bin/node]",
    " [pc=0x562d3990b3fd] node::OnFatalError(char const*, char const*) [/usr/bin/node]",
    " [pc=0x562d39a9a2d2] v8::Utils::ReportOOMFailure(v8::internal::Isolate*, char const*, bool) [/usr/bin/node]",
    " [pc=0x562d39a9a52b] v8::internal::V8::FatalProcessOutOfMemory(v8::internal::Isolate*, char const*, bool) [/usr/bin/node]",
    " [pc=0x562d39e304b3]  [/usr/bin/node]",
    " [pc=0x562d39e305f4]  [/usr/bin/node]",
    " [pc=0x562d39e401a6] v8::internal::Heap::PerformGarbageCollection(v8::internal::GarbageCollector, v8::GCCallbackFlags) [/usr/bin/node]",
    " [pc=0x562d39e40b4e] v8::internal::Heap::CollectGarbage(v8::internal::AllocationSpace, v8::internal::GarbageCollectionReason, v8::GCCallbackFlags) [/usr/bin/node]",
    " [pc=0x562d39e42d4d] v8::internal::Heap::AllocateRawWithLightRetry(int, v8::internal::AllocationSpace, v8::internal::AllocationAlignment) [/usr/bin/node]",
    " [pc=0x562d39e42da2] v8::internal::Heap::AllocateRawWithRetryOrFail(int, v8::internal::AllocationSpace, v8::internal::AllocationAlignment) [/usr/bin/node]",
    " [pc=0x562d39e116e5] v8::internal::Factory::NewFillerObject(int, bool, v8::internal::AllocationSpace) [/usr/bin/node]",
    " [pc=0x562d3a07fcff] v8::internal::Runtime_AllocateInNewSpace(int, v8::internal::Object**, v8::internal::Isolate*) [/usr/bin/node]",
    " [pc=0x1c6c58cfc5d] "
  ],
  "javascriptHeap": {
    "totalMemory": 1491505152,
    "totalCommittedMemory": 1489223872,
    "usedMemory": 1362043424,
    "availableMemory": 37654160,
    "memoryLimit": 1526909922,
    "heapSpaces": {
      "read_only_space": {
        "memorySize": 524288,
        "committedMemory": 42224,
        "capacity": 515584,
        "used": 33520,
        "available": 482064
      },
      "new_space": {
        "memorySize": 2097152,
        "committedMemory": 1110848,
        "capacity": 1031168,
        "used": 44984,
        "available": 986184
      },
      "old_space": {
        "memorySize": 1390612480,
        "committedMemory": 1390040528,
        "capacity": 1282618880,
        "used": 1281645768,
        "available": 973112
      },
      "code_space": {
        "memorySize": 6291456,
        "committedMemory": 6052672,
        "capacity": 5490816,
        "used": 5490816,
        "available": 0
      },
      "map_space": {
        "memorySize": 17313792,
        "committedMemory": 17311616,
        "capacity": 1701440,
        "used": 1701440,
        "available": 0
      },
      "large_object_space": {
        "memorySize": 74665984,
        "committedMemory": 74665984,
        "capacity": 108339696,
        "used": 73126896,
        "available": 35212800
      },
      "new_large_object_space": {
        "memorySize": 0,
        "committedMemory": 0,
        "capacity": 0,
        "used": 0,
        "available": 0
      }
    }
  },
  "resourceUsage": {
    "userCpuSeconds": 635.06,
    "kernelCpuSeconds": 635.06,
    "cpuConsumptionPercent": 8.19268e-05,
    "maxRss": 1604145152,
    "pageFaults": {
      "IORequired": 73,
      "IONotRequired": 2763454
    },
    "fsActivity": {
      "reads": 74272,
      "writes": 0
    }
  },
  "uvthreadResourceUsage": {
    "userCpuSeconds": 402.348,
    "kernelCpuSeconds": 402.348,
    "cpuConsumptionPercent": 5.19054e-05,
    "fsActivity": {
      "reads": 74256,
      "writes": 0
    }
  },
  "libuv": [
  ],
  "environmentVariables": {
    "PATH": "/usr/local/bin:/usr/bin:/bin:/usr/local/sbin:/usr/lib/jvm/default/bin:/usr/bin/site_perl:/usr/bin/vendor_perl:/usr/bin/core_perl",
    "XAUTHORITY": "/home/arson/.Xauthority",
    "BROWSER": "/usr/bin/chromium",
    "GDMSESSION": "plasma",
    "XDG_DATA_DIRS": "/usr/share:/usr/share:/usr/local/share",
    "KDE_SESSION_UID": "1000",
    "DBUS_SESSION_BUS_ADDRESS": "unix:path=/run/user/1000/bus",
    "XDG_SEAT_PATH": "/org/freedesktop/DisplayManager/Seat0",
    "LANG": "pl_PL.UTF-8",
    "XDG_SESSION_ID": "2",
    "XDG_SESSION_TYPE": "x11",
    "XDG_CURRENT_DESKTOP": "KDE",
    "QT_AUTO_SCREEN_SCALE_FACTOR": "0",
    "DISPLAY": ":0",
    "MAIL": "/var/spool/mail/arson",
    "LC_COLLATE": "pl_PL.UTF-8",
    "SESSION_MANAGER": "local/Arson:@/tmp/.ICE-unix/777,unix/Arson:/tmp/.ICE-unix/777",
    "LOGNAME": "arson",
    "PWD": "/home/arson/Repozytoria/praca-inzynierska/frontend",
    "_": "/opt/JetBrains/apps/WebStorm/ch-0/182.4129.32/jre64/bin/java",
    "XCURSOR_THEME": "breeze_cursors",
    "XDG_SESSION_CLASS": "user",
    "LANGUAGE": "",
    "KDE_SESSION_VERSION": "5",
    "SHELL": "/bin/bash",
    "XDG_GREETER_DATA_DIR": "/var/lib/lightdm-data/arson",
    "DESKTOP_SESSION": "plasma",
    "OLDPWD": "/opt/JetBrains/apps/WebStorm/ch-0/182.4129.32/bin",
    "USER": "arson",
    "DESKTOP_STARTUP_ID": "Arson;1550231751;236070;784_TIME3172752",
    "KDE_FULL_SESSION": "true",
    "XDG_SEAT": "seat0",
    "GTK_MODULES": "canberra-gtk-module",
    "EDITOR": "/usr/bin/nano",
    "GS_LIB": "/home/arson/.fonts",
    "XDG_SESSION_PATH": "/org/freedesktop/DisplayManager/Session0",
    "QT_QPA_PLATFORMTHEME": "qt5ct",
    "XDG_RUNTIME_DIR": "/run/user/1000",
    "XDG_VTNR": "7",
    "XDG_SESSION_DESKTOP": "plasma",
    "SHLVL": "2",
    "HOME": "/home/arson"
  },
  "userLimits": {
    "core_file_size_blocks": {
      "soft": "unlimited",
      "hard": "unlimited"
    },
    "data_seg_size_kbytes": {
      "soft": "unlimited",
      "hard": "unlimited"
    },
    "file_size_blocks": {
      "soft": "unlimited",
      "hard": "unlimited"
    },
    "max_locked_memory_bytes": {
      "soft": 1048576,
      "hard": 1048576
    },
    "max_memory_size_kbytes": {
      "soft": "unlimited",
      "hard": "unlimited"
    },
    "open_files": {
      "soft": 524288,
      "hard": 524288
    },
    "stack_size_bytes": {
      "soft": 8388608,
      "hard": "unlimited"
    },
    "cpu_time_seconds": {
      "soft": "unlimited",
      "hard": "unlimited"
    },
    "max_user_processes": {
      "soft": 31253,
      "hard": 31253
    },
    "virtual_memory_kbytes": {
      "soft": "unlimited",
      "hard": "unlimited"
    }
  },
  "sharedObjects": [
    "linux-vdso.so.1",
    "/usr/lib/libz.so.1",
    "/usr/lib/libuv.so.1",
    "/usr/lib/libcares.so.2",
    "/usr/lib/libnghttp2.so.14",
    "/usr/lib/libcrypto.so.1.1",
    "/usr/lib/libssl.so.1.1",
    "/usr/lib/libicui18n.so.63",
    "/usr/lib/libicuuc.so.63",
    "/usr/lib/libdl.so.2",
    "/usr/lib/librt.so.1",
    "/usr/lib/libstdc++.so.6",
    "/usr/lib/libm.so.6",
    "/usr/lib/libgcc_s.so.1",
    "/usr/lib/libpthread.so.0",
    "/usr/lib/libc.so.6",
    "/usr/lib/libnsl.so.2",
    "/usr/lib/libicudata.so.63",
    "/lib64/ld-linux-x86-64.so.2",
    "/usr/lib/libtirpc.so.3",
    "/usr/lib/libgssapi_krb5.so.2",
    "/usr/lib/libkrb5.so.3",
    "/usr/lib/libk5crypto.so.3",
    "/usr/lib/libcom_err.so.2",
    "/usr/lib/libkrb5support.so.0",
    "/usr/lib/libkeyutils.so.1",
    "/usr/lib/libresolv.so.2"
  ]
}